{
  "app": "",
  "goApp": false,
  "goInsights": false,
  "header":{
    "showSectionDropdown": false,
    "showApps": false,
    "showCreatorForUser": false
  },
  "auth":{
    "autoLogoutSeconds": 1,
    "rememberUser": false
  }
}
